{
  "tags": {
    "allowUnknownTags": false
  },
  "source": {
    "include": ["redstu-js","JS_DOC_README.md"],
    "includePattern": "\\.js$",
    "excludePattern": "(node_modules/|docs)"
  },
  "plugins": [
    "plugins/markdown"
  ],
  "opts": {
    "encoding": "utf8",
    "destination": "public/js-api",
    "recurse": true,
    "verbose": true
  },
  "templates": {
    "cleverLinks": false,
    "monospaceLinks": false
  }
}